Project 1: Exploratory Data Analysis
…
Tidying: Rearranging Wide/Long

#install.packages("corrr")
library(dplyr)
library(tidyverse)
library(tidyr)
library(readxl)
library(ggplot2)
library(corrr)

final <- read_excel("final.xls")
final

## # A tibble: 66 x 5
##    Winner           Loser          WRank LRank ATP  
##    <chr>            <chr>          <chr> <chr> <chr>
##  1 Mahut N.         Muller G.      49    44    34   
##  2 Thiem D.         Tomic B.       15    21    16   
##  3 Gasquet R.       Schwartzman D. 19    77    60   
##  4 Kyrgios N.       Isner J.       18    17    48   
##  5 Bautista R.      Sock J.        25    26    4    
##  6 Nadal R.         Nishikori K.   5     6     24   
##  7 Cilic M.         Nishikori K.   12    5     63   
##  8 Ramos-Vinolas A. Verdasco F.    35    59    40   
##  9 Murray A.        Dimitrov G.    2     20    57   
## 10 Raonic M.        Federer R.     14    3     1    
## # … with 56 more rows

type<- read_excel("type.xlsx")
type

## # A tibble: 66 x 3
##    ATP   Tournament             Surface
##    <chr> <chr>                  <chr>  
##  1 34    Topshelf Open          Grass  
##  2 16    Abierto Mexicano       Hard   
##  3 60    European Open          Hard   
##  4 48    BB&T Atlanta Open      Hard   
##  5 4     ASB Classic            Hard   
##  6 24    Open Banco Sabadell    Clay   
##  7 63    Swiss Indoors          Hard   
##  8 40    SkiStar Swedish Open   Clay   
##  9 57    China Open             Hard   
## 10 1     Brisbane International Hard   
## # … with 56 more rows

untidyfinal<-final%>%pivot_wider(names_from = "ATP", values_from = "Winner")
tidyfinal<- untidyfinal%>%pivot_longer(cols=c(4:69), names_to="ATP", values_to="Winner")%>%na.omit()
tidyfinal

## # A tibble: 66 x 5
##    Loser          WRank LRank ATP   Winner          
##    <chr>          <chr> <chr> <chr> <chr>           
##  1 Muller G.      49    44    34    Mahut N.        
##  2 Tomic B.       15    21    16    Thiem D.        
##  3 Schwartzman D. 19    77    60    Gasquet R.      
##  4 Isner J.       18    17    48    Kyrgios N.      
##  5 Sock J.        25    26    4     Bautista R.     
##  6 Nishikori K.   5     6     24    Nadal R.        
##  7 Nishikori K.   12    5     63    Cilic M.        
##  8 Verdasco F.    35    59    40    Ramos-Vinolas A.
##  9 Dimitrov G.    2     20    57    Murray A.       
## 10 Federer R.     14    3     1     Raonic M.       
## # … with 56 more rows
…
## # A tibble: 7 x 7
##   Loser           WRank LRank ATP   Winner      Tournament               Surface
##   <chr>           <chr> <chr> <chr> <chr>       <chr>                    <chr>  
## 1 Muller G.       49    44    34    Mahut N.    Topshelf Open            Grass  
## 2 Zverev A.       192   38    36    Mayer F.    Gerry Weber Open         Grass  
## 3 Raonic M.       2     7     39    Murray A.   Wimbledon                Grass  
## 4 Muller G.       38    39    42    Karlovic I. Hall of Fame Championsh… Grass  
## 5 Cuevas P.       38    25    38    Johnson S.  AEGON Open               Grass  
## 6 Raonic M.       2     9     37    Murray A.   AEGON Championships      Grass  
## 7 Kohlschreiber … 7     26    35    Thiem D.    Mercedes Cup             Grass

tennis%>%select(Winner, Tournament)

## # A tibble: 66 x 2
##    Winner           Tournament            
##    <chr>            <chr>                 
##  1 Mahut N.         Topshelf Open         
##  2 Thiem D.         Abierto Mexicano      
##  3 Gasquet R.       European Open         
##  4 Kyrgios N.       BB&T Atlanta Open     
##  5 Bautista R.      ASB Classic           
##  6 Nadal R.         Open Banco Sabadell   
##  7 Cilic M.         Swiss Indoors         
##  8 Ramos-Vinolas A. SkiStar Swedish Open  
##  9 Murray A.        China Open            
## 10 Raonic M.        Brisbane International
## # … with 56 more rows

tennis%>%arrange((Loser))

## # A tibble: 66 x 7
##    Loser       WRank LRank ATP   Winner       Tournament                 Surface
##    <chr>       <chr> <chr> <chr> <chr>        <chr>                      <chr>  
##  1 Almagro N.  19    72    10    Thiem D.     Argentina Open             Clay   
##  2 Baghdatis … 4     57    17    Wawrinka S.  Dubai Tennis Championships Hard   
##  3 Basilashvi… 48    123   44    Lorenzi P.   Generali Open              Clay   
##  4 Bautista A… 2     19    59    Murray A.    Shanghai Masters           Hard   
##  5 Bautista A… 49    17    51    Carreno Bus… Winston-Salem Open at Wak… Hard   
##  6 Bellucci T. 35    58    8     Estrella Bu… Ecuador Open               Clay   
##  7 Carreno Bu… 71    50    26    Almagro N.   Millenium Estoril Open     Clay   
##  8 Carreno-Bu… 27    67    18    Cuevas P.    Brasil Open                Clay   
##  9 Cilic M.    4     11    31    Wawrinka S.  Geneva Open                Clay   
## 10 Cilic M.    41    12    14    Kyrgios N.   Open 13                    Hard   
## # … with 56 more rows

tennis%>%group_by(Loser)%>%filter(Surface == "Clay")%>%select(-Winner, -WRank)

## # A tibble: 22 x 5
## # Groups:   Loser [21]
##    Loser            LRank ATP   Tournament                          Surface
##    <chr>            <chr> <chr> <chr>                               <chr>  
##  1 Nishikori K.     6     24    Open Banco Sabadell                 Clay   
##  2 Verdasco F.      59    40    SkiStar Swedish Open                Clay   
##  3 Pouille L.       72    25    BRD Nastase Tiriac Trophy           Clay   
##  4 Almagro N.       72    10    Argentina Open                      Clay   
##  5 Carreno Busta P. 50    26    Millenium Estoril Open              Clay   
##  6 Cilic M.         11    31    Geneva Open                         Clay   
##  7 Haase R.         95    43    Suisse Open Gstaad                  Clay   
##  8 Cuevas P.        24    41    German Tennis Championships         Clay   
##  9 Sock J.          25    21    U.S. Men's Clay Court Championships Clay   
## 10 Dimitrov G.      29    27    Istanbul Open                       Clay   
## # … with 12 more rows
…
I used the filter function to search for the results that are only true when the Surface of the court is Grass. I used the select function to only look at Winners and the tournament name. The arrange function was used to arrange the data by the Loser name. I grouped by Loser and filtered for Surface that was Clay and dropped the Winner name and Winner Rank to focus on the loser stats. I used the summarize function to lok at how many distinct Surfaces there were. I changed my ATP, LRank, and WRank variables to numeric and then was able to create a new variable using mutate to look at the differences in rank between loser and winner. I used summarize to look at the median rank of the winners.

Wrangling: Using ten summary statistics

tennis%>%group_by(Loser, Surface)%>%summarize_if(is.numeric, mean)

## # A tibble: 55 x 6
## # Groups:   Loser [43]
##    Loser            Surface WRank LRank   ATP   dif
##    <chr>            <chr>   <dbl> <dbl> <dbl> <dbl>
##  1 Almagro N.       Clay     19      72    10  53  
##  2 Baghdatis M.     Hard      4      57    17  53  
##  3 Basilashvili N.  Clay     48     123    44  75  
##  4 Bautista Agut R. Hard     25.5    18    55  24.5
##  5 Bellucci T.      Clay     35      58     8  23  
##  6 Carreno Busta P. Clay     71      50    26  21  
##  7 Carreno-Busta P. Clay     27      67    18  40  
##  8 Cilic M.         Clay      4      11    31   7  
##  9 Cilic M.         Hard     41      12    14  29  
## 10 Coric B.         Clay     47      48    22   1  
## # … with 45 more rows
…
